vp_matab/tr_ecu_demo.vcd
$date
    Mon Jan 28 00:45:03 2019
$end

$version
    2.0.alpha_1
$end

$timescale
      1 ps
$end

$scope module SystemC_AMS $end

$var real 1 !  ref_pout $end
$var real 1 "  dcmotor_pout_a $end
$var real 1 #  dcmotor_pout_i $end
$var real 1 $  ecu_pid_ctrl $end
$var real 1 %  pwm_pout $end
$var real 1 &  ecu_pwm_duty $end

$upscope $end

$enddefinitions $end


#0
r0.3000000000000000 !
r-0.000000000000000 "
r0.000000000000000 #
r0.000000000000000 $
r0.000000000000000 %
r0.000000000000000 &

#3000000
r0.3000000000000000 !
r-1.697121521268092e-09 "
r0.02392821535393885 #
r12.00000000000000 %

#382500000
r0.3000000000000000 !
r-1.362745246663371e-05 "
r2.568115355932160 #
r12.00000000000000 %

#385500000
r0.3000000000000000 !
r-1.384096587028023e-05 "
r2.572432037683882 #
r0.000000000000000 %

#500006000
r4.202812500000000 $
r4.202812500000000 &

#765000000
r0.3000000000000000 !
r-2.064051452704061e-05 "
r1.757688144820368 #
r0.000000000000000 %

#768000000
r0.3000000000000000 !
r-2.053379264843331e-05 "
r1.764418709056741 #
r11.99999999999986 %

#818000000
r0.3000000000000000 !
r-1.857407404155861e-05 "
r2.068150322387327 #
r12.00000000000000 %

#1000014000
r4.203533203125000 $
r4.203533203125000 &

#1032905882
r0.3000000000000000 !
r-5.729087589213544e-06 "
r3.217308576665165 #
r12.00000000000000 %

#1082905882
r0.3000000000000000 !
r-1.511013673554117e-06 "
r3.254744190151733 #
r0.000000000000000 %

#1500022000
r4.204253906249999 $
r4.204253906249999 &

#1530000000
r0.3000000000000000 !
r7.954639236440074e-05 "
r2.057563000811778 #
r0.000000000000000 %

#1533000000
r0.3000000000000000 !
r8.036044459899805e-05 "
r2.063242917432291 #
r11.99999999999986 %

#1583000000
r0.3000000000000000 !
r9.418264181436094e-05 "
r2.349461073157579 #
r12.00000000000000 %

#1797905882
r0.3000000000000000 !
r0.0001594998000137058 "
r3.432274436816385 #
r12.00000000000000 %

#1847905882
r0.3000000000000000 !
r0.0001762599955640659 "
r3.456182784946655 #
r0.000000000000000 %

#2000030000
r4.204974609374998 $
r4.204974609374998 &

#2295000000
r0.3000000000000000 !
r0.0003736468209835096 "
r2.161990460381826 #
r0.000000000000000 %

#2298000000
r0.3000000000000000 !
r0.0003752662915193425 "
r2.167158556812552 #
r11.99999999999986 %

#2348000000
r0.3000000000000000 !
r0.0004025364578797656 "
r2.444963752250374 #
r12.00000000000000 %

#2500038000
r4.198664062499999 $
r4.198664062499999 &

#2562905882
r0.3000000000000000 !
r0.0005261438857646652 "
r3.495917886247957 #
r12.00000000000000 %

#2612905882
r0.3000000000000000 !
r0.0005565741042481620 "
r3.513343350954113 #
r0.000000000000000 %

#3000046000
r4.199383007812498 $
r4.199383007812498 &

#3060000000
r0.3000000000000000 !
r0.0008773295316179000 "
r2.172755580797007 #
r0.000000000000000 %

#3063000000
r0.3000000000000000 !
r0.0008797834277459171 "
r2.177680381137719 #
r11.99999999999986 %

#3113000000
r0.3000000000000000 !
r0.0009209620057899449 "
r2.451507980789202 #
r12.00000000000000 %

#3327905882
r0.3000000000000000 !
r0.001104361965688399 "
r3.487409360308265 #
r12.00000000000000 %

#3377905882
r0.3000000000000000 !
r0.001148703777575786 "
r3.501784483636662 #
r0.000000000000000 %

#3500054000
r4.193070703124998 $
r4.193070703124998 &

#3825000000
r0.3000000000000000 !
r0.001593537892089481 "
r2.139461136931089 #
r0.000000000000000 %

#3828000000
r0.3000000000000000 !
r0.001596822306681567 "
r2.144273407146841 #
r11.99999999999986 %

#3878000000
r0.3000000000000000 !
r0.001651833373352824 "
r2.416282500687126 #
r12.00000000000000 %

#4000062000
r4.193787890624998 $
r4.193787890624998 &

#4092905882
r0.3000000000000000 !
r0.001894475998543561 "
r3.445311950125824 #
r12.00000000000000 %

#4142905882
r0.3000000000000000 !
r0.001952550913344597 "
r3.458307082820163 #
r0.000000000000000 %

#4500070000
r4.187473828124998 $
r4.187473828124998 &

#4590000000
r0.3000000000000000 !
r0.002519195139608070 "
r2.086244519603623 #
r0.000000000000000 %

#4593000000
r0.3000000000000000 !
r0.002523290831571212 "
r2.091007817595937 #
r12.00000000000000 %

#4854929412
r0.3000000000000000 !
r0.002887401921528585 "
r3.378787245177883 #
r11.99999905882448 %

#4857929412
r0.3000000000000000 !
r0.002891646866930941 "
r3.379584860662703 #
r0.000000000000000 %

#5000078000
r4.181158007812498 $
r4.181158007812498 &

#5355000000
r0.3000000000000000 !
r0.003647257116013234 "
r1.890255820837208 #
r0.000000000000000 %

#5358000000
r0.3000000000000000 !
r0.003652132844367550 "
r1.895412900738904 #
r12.00000000000000 %

#5500086000
r4.174840429687498 $
r4.174840429687498 &

#5619929412
r0.3000000000000000 !
r0.004083075207290872 "
r3.213116011653844 #
r11.99999905882448 %

#5622929412
r0.3000000000000000 !
r0.004088070980576508 "
r3.214214744311732 #
r0.000000000000000 %

#6000094000
r4.168521093749997 $
r4.168521093749997 &

#6120000000
r0.3000000000000000 !
r0.004964199326951067 "
r1.765281778239651 #
r0.000000000000000 %

#6123000000
r0.3000000000000000 !
r0.004969778997032215 "
r1.770627775057164 #
r12.00000000000000 %

#6384929412
r0.3000000000000000 !
r0.005461355087204163 "
r3.103355093964340 #
r11.99999905882448 %

#6387929412
r0.3000000000000000 !
r0.005467035874612725 "
r3.104605561346659 #
r0.000000000000000 %

#6500102000
r4.162199999999997 $
r4.162199999999997 &

#6885000000
r0.3000000000000000 !
r0.006454053468329409 "
r1.676099039023946 #
r0.000000000000000 %

#6888000000
r0.3000000000000000 !
r0.006460286652217540 "
r1.681541555775880 #
r12.00000000000000 %

#7000110000
r4.148845898437497 $
r4.148845898437497 &

#7149929412
r0.3000000000000000 !
r0.007008322603128216 "
r3.022019293584147 #
r11.99999905882448 %

#7152929412
r0.3000000000000000 !
r0.007014643210804028 "
r3.023348536050776 #
r0.000000000000000 %

#7500118000
r4.142519531249997 $
r4.142519531249997 &

#7650000000
r0.3000000000000000 !
r0.008105712182707749 "
r1.605512191819947 #
r0.000000000000000 %

#7653000000
r0.3000000000000000 !
r0.008112561529156626 "
r1.611006045956231 #
r12.00000000000000 %

#7914929412
r0.3000000000000000 !
r0.008713915607542935 "
r2.955674143537747 #
r11.99999905882101 %

#7917929412
r0.3000000000000000 !
r0.008720841413734082 "
r2.957046430581670 #
r0.000000000000000 %

#8000126000
r4.129160156249997 $
r4.129160156249997 &

#8415000000
r0.3000000000000000 !
r0.009910569764276549 "
r1.545099514518117 #
r0.000000000000000 %

#8418000000
r0.3000000000000000 !
r0.009918004806242831 "
r1.550622526024569 #
r11.99999999999812 %

#8468000000
r0.3000000000000000 !
r0.01004204166125178 "
r1.834357784126187 #
r12.00000000000000 %

#8500134000
r4.115797265624997 $
r4.115797265624997 &

#8676952941
r0.3000000000000000 !
r0.01056321664790637 "
r2.880985036466612 #
r12.00000000000000 %

#8726952941
r0.3000000000000000 !
r0.01068878639923493 "
r2.904504889631884 #
r0.000000000000000 %

#9000142000
r4.109462109374997 $
r4.109462109374997 &

#9180000000
r0.3000000000000000 !
r0.01186280557289577 "
r1.594794514858223 #
r0.000000000000000 %

#9183000000
r0.3000000000000000 !
r0.01187080335629798 "
r1.600017296534332 #
r11.99999999999812 %

#9233000000
r0.3000000000000000 !
r0.01200422936080893 "
r1.879006685397835 #
r12.00000000000000 %

#9441952941
r0.3000000000000000 !
r0.01256485297793205 "
r2.908115918961261 #
r12.00000000000000 %

#9491952941
r0.3000000000000000 !
r0.01269990964767198 "
r2.927960857147532 #
r0.000000000000000 %

#9500150000
r4.096093945312497 $
r4.096093945312497 &

#9945000000
r0.3000000000000000 !
r0.01396033608248763 "
r1.591691501432931 #
r0.000000000000000 %

#9948000000
r0.3000000000000000 !
r0.01396890857823396 "
r1.596777701906433 #
r11.99999999999812 %

#9998000000
r0.3000000000000000 !
r0.01411191135912429 "
r1.873539051181512 #
r12.00000000000000 %

#10000158000
r4.082722265624997 $
r4.082722265624997 &

#10206952941
r0.3000000000000000 !
r0.01471251245821223 "
r2.143616471266275 #
r0.09411835294343618 %

#10206976471
r0.3000000000000000 !
r0.01471258037469170 "
r2.143549501965026 #
r0.000000000000000 %

#10500166000
r4.076378320312497 $
r4.076378320312497 &

#10710000000
r0.3000000000000000 !
r0.01618846508115036 "
r0.9857669054509630 #
r0.000000000000000 %

#10713000000
r0.3000000000000000 !
r0.01619741048287349 "
r0.9925519616151348 #
r11.99999999999812 %

#10763000000
r0.3000000000000000 !
r0.01634648011461382 "
r1.297239520561660 #
r12.00000000000000 %

#10968976471
r0.3000000000000000 !
r0.01696061657026551 "
r2.406781246453732 #
r11.99999835293947 %

#10971976471
r0.3000000000000000 !
r0.01696956411738881 "
r2.409273268554614 #
r0.000000000000000 %

#11000174000
r4.055970117187496 $
r4.055970117187496 &

#11475000000
r0.3000000000000000 !
r0.01849994227056845 "
r1.134821400812398 #
r0.000000000000000 %

#11478000000
r0.3000000000000000 !
r0.01850924880918559 "
r1.141077106069503 #
r11.99999999999812 %

#11500182000
r4.042587890624996 $
r4.042587890624996 &

#11528000000
r0.3000000000000000 !
r0.01866437334726626 "
r1.437020181759391 #
r12.00000000000000 %

#11731000000
r0.3000000000000000 !
r0.01929487962965652 "
r2.500546766982249 #
r12.00000000000000 %

#11781000000
r0.3000000000000000 !
r0.01945053863308824 "
r2.535005432254932 #
r0.000000000000000 %

#12000190000
r4.029202148437497 $
r4.029202148437497 &

#12240000000
r0.3000000000000000 !
r0.02090830337167230 "
r1.291877354915531 #
r0.000000000000000 %

#12243000000
r0.3000000000000000 !
r0.02091800848793168 "
r1.297560414405865 #
r11.99999999999812 %

#12293000000
r0.3000000000000000 !
r0.02107981278659227 "
r1.584215358664398 #
r12.00000000000000 %

#12496000000
r0.3000000000000000 !
r0.02173813733814940 "
r2.614328219888539 #
r12.00000000000000 %

#12500198000
r4.008781640624996 $
r4.008781640624996 &

#12546000000
r0.3000000000000000 !
r0.02190081413314737 "
r2.641529750393971 #
r0.000000000000000 %

#13000206000
r4.009449609374996 $
r4.009449609374996 &

#13005000000
r0.3000000000000000 !
r0.02342530862926407 "
r1.345254796482402 #
r0.000000000000000 %

#13008000000
r0.3000000000000000 !
r0.02343546329158430 "
r1.350666768635762 #
r11.99999999999812 %

#13058000000
r0.3000000000000000 !
r0.02360477228440597 "
r1.632864750994834 #
r12.00000000000000 %

#13261000000
r0.3000000000000000 !
r0.02429378742215008 "
r2.646948930551765 #
r12.00000000000000 %

#13311000000
r0.3000000000000000 !
r0.02446407515118282 "
r2.670676152769865 #
r0.000000000000000 %

#13500214000
r3.989023828124996 $
r3.989023828124996 &

#13770000000
r0.3000000000000000 !
r0.02605902876372440 "
r1.349010451700314 #
r0.000000000000000 %

#13773000000
r0.3000000000000000 !
r0.02606964731426231 "
r1.354293764510601 #
r11.99999999999812 %

#13823000000
r0.3000000000000000 !
r0.02624668784057416 "
r1.634388866991230 #
r12.00000000000000 %

#14000222000
r3.968592773437496 $
r3.968592773437496 &

#14023023529
r0.3000000000000000 !
r0.02695650362252123 "
r2.627499463800009 #
r12.00000000000000 %

#14073023529
r0.3000000000000000 !
r0.02713450675220261 "
r2.650251121607555 #
r0.000000000000000 %

#14500230000
r3.962218945312495 $
r3.962218945312495 &

#14535000000
r0.3000000000000000 !
r0.02881078648818887 "
r1.314501965867187 #
r0.000000000000000 %

#14538000000
r0.3000000000000000 !
r0.02882186417676058 "
r1.319771128358042 #
r11.99999999999812 %

#14588000000
r0.3000000000000000 !
r0.02900654775912823 "
r1.599644030251257 #
r12.00000000000000 %

#14788023529
r0.3000000000000000 !
r0.02974676270873371 "
r2.591975325025170 #
r12.00000000000000 %

#14838023529
r0.3000000000000000 !
r0.02993232044444372 "
r2.614566938927826 #
r0.000000000000000 %

#15000238000
r3.934749609374996 $
r3.934749609374996 &

#15300000000
r0.3000000000000000 !
r0.03167754634004818 "
r1.277731444288374 #
r0.000000000000000 %

#15303000000
r0.3000000000000000 !
r0.03168906670623972 "
r1.282996605194654 #
r11.99999999999812 %

#15353000000
r0.3000000000000000 !
r0.03188111839428831 "
r1.562825494357256 #
r12.00000000000000 %

#15500246000
r3.914304492187495 $
r3.914304492187495 &

#15550047059
r0.3000000000000000 !
r0.03263915672925258 "
r2.541569706632326 #
r11.99999929411435 %

#15553047059
r0.3000000000000000 !
r0.03265071426838784 "
r2.542996061886129 #
r0.000000000000000 %

#16000254000
r3.907916601562495 $
r3.907916601562495 &

#16065000000
r0.3000000000000000 !
r0.03465686449634600 "
r1.105477395595723 #
r6.938893903907228e-12 %

#16068000000
r0.3000000000000000 !
r0.03466881850124803 "
r1.111150788612690 #
r12.00000000000000 %

#16315047059
r0.3000000000000000 !
r0.03565312574610031 "
r2.402195932494192 #
r11.99999929411435 %

#16318047059
r0.3000000000000000 !
r0.03566507742844660 "
r2.403934769229465 #
r0.000000000000000 %

#16500262000
r3.880433203124995 $
r3.880433203124995 &

#16830000000
r0.3000000000000000 !
r0.03773503430317589 "
r1.009425572255770 #
r0.000000000000000 %

#16833000000
r0.3000000000000000 !
r0.03774734211404329 "
r1.015291362646323 #
r11.99999999999812 %

#16883000000
r0.3000000000000000 !
r0.03795245172218298 "
r1.304909761625772 #
r12.00000000000000 %

#17000270000
r3.859974023437495 $
r3.859974023437495 &

#17077070588
r0.3000000000000000 !
r0.03874853612584919 "
r2.304007464449928 #
r12.00000000000000 %

#17127070588
r0.3000000000000000 !
r0.03895381055907782 "
r2.335646790676083 #
r0.000000000000000 %

#17500278000
r3.853572070312495 $
r3.853572070312495 &

#17595000000
r0.3000000000000000 !
r0.04089989931328071 "
r1.052438851248675 #
r6.938893903907228e-12 %

#17598000000
r0.3000000000000000 !
r0.04091252779304355 "
r1.058087316567210 #
r12.00000000000000 %

#17839094118
r0.3000000000000000 !
r0.04192699908206129 "
r2.320435434822291 #
r11.99999858823259 %

#17842094118
r0.3000000000000000 !
r0.04193961728524620 "
r2.322248247513699 #
r0.000000000000000 %

#18000286000
r3.826074609374995 $
r3.826074609374995 &

#18360000000
r0.3000000000000000 !
r0.04414689735868797 "
r0.9251263810208303 #
r0.000000000000000 %

#18363000000
r0.3000000000000000 !
r0.04415985069605277 "
r0.9310774347614199 #
r11.99999999999812 %

#18413000000
r0.3000000000000000 !
r0.04437569719071471 "
r1.222123758155573 #
r12.00000000000000 %

#18500294000
r3.798570117187495 $
r3.798570117187495 &

#18604094118
r0.3000000000000000 !
r0.04520022773933913 "
r1.519871052725339 #
r0.09411623529840085 %

#18604117647
r0.3000000000000000 !
r0.04520032923460349 "
r1.519810108435195 #
r2.352910950520481e-07 %

#18654117647
r0.3000000000000000 !
r0.04541609629351218 "
r1.391945580826733 #
r0.000000000000000 %

#19000302000
r3.792152343749994 $
r3.792152343749994 &

#19125000000
r0.3000000000000000 !
r0.04745522999224396 "
r0.4414472022185388 #
r6.938893903907228e-12 %

#19128000000
r0.3000000000000000 !
r0.04746826134046334 "
r0.4487947126726795 #
r12.00000000000000 %

#19366117647
r0.3000000000000000 !
r0.04849896273396044 "
r1.819568024876213 #
r12.00000000000000 %

#19416117647
r0.3000000000000000 !
r0.04871462830096002 "
r1.872017382009448 #
r0.000000000000000 %

#19500310000
r3.757607812499995 $
r3.757607812499995 &

#19890000000
r0.3000000000000000 !
r0.05077295910241753 "
r0.7329026811292221 #
r0.000000000000000 %

#19893000000
r0.3000000000000000 !
r0.05078608072104007 "
r0.7393671185730142 #
r11.99999999999812 %

#19943000000
r0.3000000000000000 !
r0.05100468307535128 "
r1.039066501058490 #
r12.00000000000000 %

#20000318000
r3.737116992187494 $
r3.737116992187494 &

#20128141176
r0.3000000000000000 !
r0.05181298062969630 "
r2.029461900836177 #
r12.00000000000000 %

#20178141176
r0.3000000000000000 !
r0.05203114465609027 "
r2.071207877050313 #
r0.000000000000000 %

#20500326000
r3.730683398437494 $
r3.730683398437494 &

#20655000000
r0.3000000000000000 !
r0.05413138534670041 "
r0.8447044982564127 #
r6.938893903907228e-12 %

#20658000000
r0.3000000000000000 !
r0.05414471639127161 "
r0.8507875481193850 #
r12.00000000000000 %

#20893141176
r0.3000000000000000 !
r0.05518811332783127 "
r2.116281069335776 #
r12.00000000000000 %

#20943141176
r0.3000000000000000 !
r0.05540973355649831 "
r2.152901698867600 #
r0.000000000000000 %

#21000334000
r3.696123046874995 $
r3.696123046874995 &

#21420000000
r0.3000000000000000 !
r0.05754451788782961 "
r0.8881459807601430 #
r0.000000000000000 %

#21423000000
r0.3000000000000000 !
r0.05755807697551685 "
r0.8940434954584049 #
r11.99999999999812 %

#21473000000
r0.3000000000000000 !
r0.05778400760538366 "
r1.184381421598396 #
r12.00000000000000 %

#21500342000
r3.675616406249994 $
r3.675616406249994 &

#21655164706
r0.3000000000000000 !
r0.05860658556419540 "
r2.129674096699723 #
r11.99999952940768 %

#21658164706
r0.3000000000000000 !
r0.05862012713073828 "
r2.131822922073781 #
r0.000000000000000 %

#22000350000
r3.669166992187495 $
r3.669166992187495 &

#22185000000
r0.3000000000000000 !
r0.06102302271331324 "
r0.7622701559615774 #
r6.938893903907228e-12 %

#22188000000
r0.3000000000000000 !
r0.06103684697000666 "
r0.7684803045522557 #
r12.00000000000000 %

#22417188235
r0.3000000000000000 !
r0.06209112467367810 "
r2.013522629508195 #
r12.00000000000000 %

#22467188235
r0.3000000000000000 !
r0.06232077566201333 "
r2.053129013212001 #
r0.000000000000000 %

#22500358000
r3.634590820312494 $
r3.634590820312494 &

#22950000000
r0.3000000000000000 !
r0.06455753724670740 "
r0.7985088542834742 #
r0.000000000000000 %

#22953000000
r0.3000000000000000 !
r0.06457155185278118 "
r0.8045555467802785 #
r11.99999999999812 %

#23000366000
r3.614068359374994 $
r3.614068359374994 &

#23003000000
r0.3000000000000000 !
r0.06480505151635085 "
r1.097367535004176 #
r12.00000000000000 %

#23179211765
r0.3000000000000000 !
r0.06562709411833795 "
r2.022102173707251 #
r11.99999882352604 %

#23182211765
r0.3000000000000000 !
r0.06564107981881229 "
r2.024458876973881 #
r0.000000000000000 %

#23500374000
r3.600571874999994 $
r3.600571874999994 &

#23715000000
r0.3000000000000000 !
r0.06814736271480921 "
r0.6719524176423950 #
r6.938893903907228e-12 %

#23718000000
r0.3000000000000000 !
r0.06816160136839322 "
r0.6783236718805767 #
r12.00000000000000 %

#23944211765
r0.3000000000000000 !
r0.06923300848168565 "
r1.919993977526072 #
r11.99999882353298 %

#23947211765
r0.3000000000000000 !
r0.06924718759679038 "
r1.922602075350596 #
r0.000000000000000 %

#24000382000
r3.565978124999994 $
r3.565978124999994 &

#24480000000
r0.3000000000000000 !
r0.07178508538646004 "
r0.6060224151897725 #
r0.000000000000000 %

#24483000000
r0.3000000000000000 !
r0.07179948680204973 "
r0.6125457779245664 #
r11.99999999999812 %

#24500390000
r3.545438085937493 $
r3.545438085937493 &

#24533000000
r0.3000000000000000 !
r0.07203938614582056 "
r0.9131181554752246 #
r12.00000000000000 %

#24706235294
r0.3000000000000000 !
r0.07286904328681731 "
r1.847641842261258 #
r12.00000000000000 %

#24756235294
r0.3000000000000000 !
r0.07310823898574204 "
r1.892984169900615 #
r0.000000000000000 %

#25000398000
r3.531924023437493 $
r3.531924023437493 &

#25245000000
r0.3000000000000000 !
r0.07546237899521958 "
r0.6696894412214641 #
r6.938893903907228e-12 %

#25248000000
r0.3000000000000000 !
r0.07547692340132528 "
r0.6759814882997972 #
r12.00000000000000 %

#25471235294
r0.3000000000000000 !
r0.07655698092751176 "
r1.898199006480277 #
r12.00000000000000 %

#25500406000
r3.497312695312493 $
r3.497312695312493 &

#25521235294
r0.3000000000000000 !
r0.07679842121635194 "
r1.940464697094921 #
r0.000000000000000 %

#26000414000
r3.497848828124993 $
r3.497848828124993 &

#26010000000
r0.3000000000000000 !
r0.07917531692117093 "
r0.6940185560125842 #
r0.000000000000000 %

#26013000000
r0.3000000000000000 !
r0.07919000732678327 "
r0.7002021153821119 #
r11.99999999999812 %

#26063000000
r0.3000000000000000 !
r0.07943474297447450 "
r0.9952987563777995 #
r12.00000000000000 %

#26233258824
r0.3000000000000000 !
r0.08026691127562259 "
r1.898255980668708 #
r11.99999811764451 %

#26236258824
r0.3000000000000000 !
r0.08028155975796381 "
r1.900813422364365 #
r0.000000000000000 %

#26500422000
r3.463228710937493 $
r3.463228710937493 &

#26775000000
r0.3000000000000000 !
r0.08293160949438055 "
r0.5649377641479578 #
r6.938893903907228e-12 %

#26778000000
r0.3000000000000000 !
r0.08294647463295490 "
r0.5714652314021436 #
r12.00000000000000 %

#26995282353
r0.3000000000000000 !
r0.08402054691112751 "
r1.779418173686737 #
r11.99999976470091 %

#26998282353
r0.3000000000000000 !
r0.08403534098505183 "
r1.782289113738415 #
r0.000000000000000 %

#27000430000
r3.428599804687493 $
r3.428599804687493 &

#27500438000
r3.429118359374993 $
r3.429118359374993 &

#27540000000
r0.3000000000000000 !
r0.08672316398978069 "
r0.4858462436429642 #
r0.000000000000000 %

#27543000000
r0.3000000000000000 !
r0.08673813988704104 "
r0.4925779697899060 #
r11.99999999999812 %

#27593000000
r0.3000000000000000 !
r0.08698758288994135 "
r0.7966173246478458 #
r12.00000000000000 %

#27757305882
r0.3000000000000000 !
r0.08780548425882997 "
r1.696916733060018 #
r12.00000000000000 %

#27807305882
r0.3000000000000000 !
r0.08805400589992352 "
r1.747260860872755 #
r0.000000000000000 %

#28000446000
r3.394480664062493 $
r3.394480664062493 &

#28305000000
r0.3000000000000000 !
r0.09054043228892455 "
r0.5451652174995570 #
r6.938893903907228e-12 %

#28308000000
r0.3000000000000000 !
r0.09055549525118600 "
r0.5516930762844652 #
r12.00000000000000 %

#28500454000
r3.366865429687493 $
r3.366865429687493 &

#28522305882
r0.3000000000000000 !
r0.09162891896907889 "
r0.9770817159930540 #
r0.09411905882334359 %

#28522329412
r0.3000000000000000 !
r0.09162903654100774 "
r0.9770293710098485 #
r0.000000000000000 %

#29000462000
r3.360336914062493 $
r3.360336914062493 &

#29070000000
r0.3000000000000000 !
r0.09436030407779936 "
r0.008441731904662179 #
r0.000000000000000 %

#29073000000
r0.3000000000000000 !
r0.09437523589853924 "
r0.01658409193948995 #
r11.99999999999812 %

#29123000000
r0.3000000000000000 !
r0.09462382651890611 "
r0.3440256555481858 #
r12.00000000000000 %

#29284329412
r0.3000000000000000 !
r0.09542272759530035 "
r1.297449067543051 #
r11.99999905882632 %

#29287329412
r0.3000000000000000 !
r0.09543753961932389 "
r1.301757035758868 #
r0.000000000000000 %

#29500470000
r3.325681640624992 $
r3.325681640624992 &

#29835000000
r0.3000000000000000 !
r0.09814508211870143 "
r0.2000724339003541 #
r6.938893903907228e-12 %

#29838000000
r0.3000000000000000 !
r0.09815993249313060 "
r0.2076739074415883 #
r12.00000000000000 %

#30000478000
r3.298048828124992 $
r3.298048828124992 &

#30046352941
r0.3000000000000000 !
r0.09918745840726101 "
r1.439551395366664 #
r12.00000000000000 %

#30096352941
r0.3000000000000000 !
r0.09943304510127315 "
r1.503026095752499 #
r0.000000000000000 %

#30500486000
r3.284471484374992 $
r3.284471484374992 &

#30600000000
r0.3000000000000000 !
r0.1019130019208050 "
r0.3937377528639700 #
r0.000000000000000 %

#30603000000
r0.3000000000000000 !
r0.1019278152506278 "
r0.4007742029059500 #
r11.99999999999812 %

#30653000000
r0.3000000000000000 !
r0.1021745247621739 "
r0.7099667315255029 #
r12.00000000000000 %

#30808376471
r0.3000000000000000 !
r0.1029392801993193 "
r1.579370722920483 #
r11.99999835294468 %

#30811376471
r0.3000000000000000 !
r0.1029540198927865 "
r1.582857164678586 #
r0.000000000000000 %

#31000494000
r3.249796874999992 $
r3.249796874999992 &

#31365000000
r0.3000000000000000 !
r0.1056855588919351 "
r0.3525785901981625 #
r6.938893903907228e-12 %

#31368000000
r0.3000000000000000 !
r0.1057004226239382 "
r0.3597307368506151 #
r11.99999999999118 %

#31418000000
r0.3000000000000000 !
r0.1059479627667803 "
r0.6707161279321330 #
r12.00000000000000 %

#31500502000
r3.222144726562492 $
r3.222144726562492 &

#31573376471
r0.3000000000000000 !
r0.1067151783471052 "
r0.9729878477641645 #
r0.09411599999660503 %

#31573400000
r0.3000000000000000 !
r0.1067152943096517 "
r0.9729360281780828 #
r3.177902385687048e-12 %

#31623400000
r0.3000000000000000 !
r0.1069616737510101 "
r0.8640900571635370 #
r0.000000000000000 %

#32000510000
r3.215579296874992 $
r3.215579296874992 &

#32130000000
r0.3000000000000000 !
r0.1094516072429583 "
r0.006243117015843467 #
r1.387778780781446e-11 %

#32133000000
r0.3000000000000000 !
r0.1094663165509999 "
r0.01444719986892729 #
r11.99999999999812 %

#32183000000
r0.3000000000000000 !
r0.1097111969284449 "
r0.3429168217679528 #
r12.00000000000000 %

#32335400000
r0.3000000000000000 !
r0.1104546837767656 "
r1.250145825037274 #
r12.00000000000000 %

#32385400000
r0.3000000000000000 !
r0.1106978350237140 "
r1.323521665570222 #
r0.000000000000000 %

#32500518000
r3.180887109374992 $
r3.180887109374992 &

#32895000000
r0.3000000000000000 !
r0.1131779015460021 "
r0.2817356667016026 #
r0.000000000000000 %

#32945000000
r0.3000000000000000 !
r0.1134214207642861 "
r0.4024983741550132 #
r12.00000000000000 %

#33000526000
r3.153217382812492 $
r3.153217382812492 &

#33097423529
r0.3000000000000000 !
r0.1141617686015224 "
r1.302403475179766 #
r12.00000000000000 %

#33147423529
r0.3000000000000000 !
r0.1144039783820898 "
r1.373496046050040 #
r0.000000000000000 %

#33500534000
r3.146634374999992 $
r3.146634374999992 &

#33660000000
r0.3000000000000000 !
r0.1168902382277430 "
r0.3084381491020938 #
r0.000000000000000 %

#33663000000
r0.3000000000000000 !
r0.1169048128190475 "
r0.3157863179348226 #
r12.00000000000000 %

#33859447059
r0.3000000000000000 !
r0.1178561479033461 "
r1.468426419322147 #
r11.99999929412671 %

#33862447059
r0.3000000000000000 !
r0.1178706295822600 "
r1.472305808520247 #
r0.000000000000000 %

#34000542000
r3.111924609374991 $
r3.111924609374991 &

#34425000000
r0.3000000000000000 !
r0.1205947590243805 "
r0.2847201249149017 #
r6.938893903907228e-12 %

#34428000000
r0.3000000000000000 !
r0.1206093319793951 "
r0.2921455166251619 #
r11.99999999999118 %

#34478000000
r0.3000000000000000 !
r0.1208520089016065 "
r0.6076349844259989 #
r12.00000000000000 %

#34500550000
r3.084237304687491 $
r3.084237304687491 &

#34624447059
r0.3000000000000000 !
r0.1215607911748920 "
r0.9057171501457941 #
r0.09411694117841662 %

#34624470588
r0.3000000000000000 !
r0.1215609048247188 "
r0.9056675017072848 #
r9.411849895002433e-07 %

#34674470588
r0.3000000000000000 !
r0.1218023540553096 "
r0.8013271010355156 #
r0.000000000000000 %

#35000558000
r3.077636718749991 $
r3.077636718749991 &

#35190000000
r0.3000000000000000 !
r0.1242834786100520 "
r-0.03249779585470343 #
r1.387778780781446e-11 %

#35193000000
r0.3000000000000000 !
r0.1242978712872880 "
r-0.02409948185701039 #
r11.99999999999812 %

#35243000000
r0.3000000000000000 !
r0.1245374647535863 "
r0.3075650415940325 #
r12.00000000000000 %

#35386470588
r0.3000000000000000 !
r0.1252222378668956 "
r1.173542367121899 #
r12.00000000000000 %

#35436470588
r0.3000000000000000 !
r0.1254601114467154 "
r1.251970318092268 #
r0.000000000000000 %

#35500566000
r3.042909374999991 $
r3.042909374999991 &

#35955000000
r0.3000000000000000 !
r0.1279269795408119 "
r0.2362486789301383 #
r0.000000000000000 %

#36000574000
r3.015204492187491 $
r3.015204492187491 &

#36005000000
r0.3000000000000000 !
r0.1281648497695258 "
r0.3605911428178024 #
r12.00000000000000 %

#36148494118
r0.3000000000000000 !
r0.1288455886277854 "
r1.220779576588352 #
r11.99999858823802 %

#36151494118
r0.3000000000000000 !
r0.1288597860742051 "
r1.225476272656124 #
r0.000000000000000 %

#36500582000
r3.008586328124991 $
r3.008586328124991 &

#36720000000
r0.3000000000000000 !
r0.1315516683521271 "
r0.1480791005449541 #
r0.000000000000000 %

#36723000000
r0.3000000000000000 !
r0.1315658808929356 "
r0.1559959686078223 #
r12.00000000000000 %

#36910517647
r0.3000000000000000 !
r0.1324509516344612 "
r1.293412501357017 #
r12.00000000000000 %

#36960517647
r0.3000000000000000 !
r0.1326859739212876 "
r1.366653050489024 #
r0.000000000000000 %

#37000590000
r2.973841406249991 $
r2.973841406249991 &

#37485000000
r0.3000000000000000 !
r0.1351541569263254 "
r0.3000907216128243 #
r6.938893903907228e-12 %

#37488000000
r0.3000000000000000 !
r0.1351682970755093 "
r0.3075744730203098 #
r11.99999999999118 %

#37500598000
r2.946118945312491 $
r2.946118945312491 &

#37538000000
r0.3000000000000000 !
r0.1354037634622608 "
r0.6241082153753270 #
r12.00000000000000 %

#37672541176
r0.3000000000000000 !
r0.1360356620787656 "
r1.402338543441963 #
r12.00000000000000 %

#37722541176
r0.3000000000000000 !
r0.1362700267992875 "
r1.470555087101033 #
r0.000000000000000 %

#38000606000
r2.939483203124991 $
r2.939483203124991 &

#38250000000
r0.3000000000000000 !
r0.1387486783070429 "
r0.3572377621035547 #
r1.387778780781446e-11 %

#38253000000
r0.3000000000000000 !
r0.1387628137835790 "
r0.3645554603787318 #
r11.99999999999812 %

#38303000000
r0.3000000000000000 !
r0.1389982162134427 "
r0.6783290421246400 #
r12.00000000000000 %

#38437541176
r0.3000000000000000 !
r0.1396300676998424 "
r1.449765412062535 #
r12.00000000000000 %

#38487541176
r0.3000000000000000 !
r0.1398644599149416 "
r1.515672813052099 #
r0.000000000000000 %

#38500614000
r2.904720703124991 $
r2.904720703124991 &

#39000622000
r2.905105664062491 $
r2.905105664062491 &

